[
   {
      "id":1,
      "voornaam":"Bart",
      "achternaam":"Duisters",
      "leeftijd":25,
      "email":"bartduisters@bartduisters.com"
   },
   {
      "id":2,
      "voornaam":"Sylvia",
      "achternaam":"De Vijlder",
      "leeftijd":24,
      "email":"sylvia@devijlder.com"
   },
   {
      "id":3,
      "voornaam":"Jeroen",
      "achternaam":"Roumen",
      "leeftijd":24,
      "email":"jeroen@huphollandhup.com"
   },
   {
      "id":4,
      "voornaam":"Evi",
      "achternaam":"Van Looy",
      "leeftijd":21,
      "email":"evi@vanlooy.com"
   },
   {
      "id":5,
      "voornaam":"Luc",
      "achternaam":"Doumen",
      "leeftijd":51,
      "email":"luc.doumen@pxl.be"
   },
   {
      "id":6,
      "voornaam":"Linus",
      "achternaam":"Torvalds",
      "leeftijd":47,
      "email":"linus@linux.com"
   }
]