[
  {
	"id": 1,
	"naam": "Bart Duisters",
	"specialiteit": "Carepackages maken, Web"
  },
  {
	"id": 2,
	"naam": "Jeroen Roumen",
	"specialiteit": "Carepackages consumeren, Wok trakteren"
  },
  {
	"id": 3,
	"naam": "Toon Froeyen",
	"specialiteit": "Zeer lang op kleine fouten zoeken"
  },
  {
	"id": 4,
	"naam": "Evi Van Looy",
	"specialiteit": "Uitstellen met web te leren"
  }
]