{
	"records": [{
		"Id": "1",
		"TypeId": "1",
		"Omschrijving": "A 180",
		"Basisprijs": "24442",
		"Verbruik": "5.50",
		"Verkeersbelasting": "248.29",
		"Inverkeersstellingbelasting": "495"
	}, {
		"Id": "2",
		"TypeId": "1",
		"Omschrijving": "A 180 CDI BlueEFFICIENCY",
		"Basisprijs": "24800",
		"Verbruik": "5.20",
		"Verkeersbelasting": "250.00",
		"Inverkeersstellingbelasting": "500"
	}, {
		"Id": "3",
		"TypeId": "2",
		"Omschrijving": "B 200 CDI BlueEFFICIENCY",
		"Basisprijs": "30129",
		"Verbruik": "4.40",
		"Verkeersbelasting": "287.86",
		"Inverkeersstellingbelasting": "495"
	}, {
		"Id": "4",
		"TypeId": "3",
		"Omschrijving": "C 250 CGI BlueEFFICIENCY",
		"Basisprijs": "40414",
		"Verbruik": "6.40",
		"Verkeersbelasting": "287.76",
		"Inverkeersstellingbelasting": "2478"
	}, {
		"Id": "5",
		"TypeId": "3",
		"Omschrijving": "C 300 CDI 4MATIC BlueEFFICIENCY",
		"Basisprijs": "48642",
		"Verbruik": "7.00",
		"Verkeersbelasting": "715.70",
		"Inverkeersstellingbelasting": "4957"
	}, {
		"Id": "6",
		"TypeId": "3",
		"Omschrijving": "C 300 CGI 4MATIC BLueEFFICIENCY",
		"Basisprijs": "50941",
		"Verbruik": "7.40",
		"Verkeersbelasting": "1381.25",
		"Inverkeersstellingbelasting": "4957"
	}, {
		"Id": "7",
		"TypeId": "4",
		"Omschrijving": "CL 500 CDI 5MATIC BLueEFFICIENCY",
		"Basisprijs": "129954",
		"Verbruik": "9.90",
		"Verkeersbelasting": "2123.22",
		"Inverkeersstellingbelasting": "4957"
	}, {
		"Id": "8",
		"TypeId": "4",
		"Omschrijving": "CL 600",
		"Basisprijs": "170489",
		"Verbruik": "13.80",
		"Verkeersbelasting": "2421.80",
		"Inverkeersstellingbelasting": "4957"
	}, {
		"Id": "9",
		"TypeId": "4",
		"Omschrijving": "DIKKE BMW",
		"Basisprijs": "999999",
		"Verbruik": "25.00",
		"Verkeersbelasting": "5203.69",
		"Inverkeersstellingbelasting": "6969"
	}]
}