[
  {
	"id": 1,
	"titel": "Carepackage - Web Essentials",
	"auteur": "Bart Duisters",
	"ISBN": "2222222222222"
	  
  },
  {
	"id": 2,
	"titel": "9 euro voor wok is geen geld als je daardoor slaagt",
	"auteur": "Jeroen Roumen",
	"ISBN": "2222222222222"
  },
  {
	"id": 3,
	"titel": "Carepackage - Web Expert",
	"auteur": "Bart Duisters",
	"ISBN": "3333333333333"
  },
  {
	"id": 4,
	"titel": "Misschien heeft Jeroen gelijk, 9 euro is niet veel als je daardoor slaagt",
	"auteur": "Evi Van Looy",
	"ISBN": "4444444444444"
  }
]